{
  "project_info": {
    "project_number": "560077801764",
    "firebase_url": "https://hw02-69d0f.firebaseio.com",
    "project_id": "hw02-69d0f",
    "storage_bucket": "hw02-69d0f.appspot.com"
  },
  "client": [
    {
      "client_info": {
        "mobilesdk_app_id": "1:560077801764:android:bb6bff9c4a287150f9cbb1",
        "android_client_info": {
          "package_name": "gkhb19.worker4food.hw02"
        }
      },
      "oauth_client": [
        {
          "client_id": "560077801764-u1gkbnaeoh2ro1idhvnik123sn09ggrc.apps.googleusercontent.com",
          "client_type": 3
        }
      ],
      "api_key": [
        {
          "current_key": "AIzaSyBpDyy3E5M8qFD17mDIcrpzybQW75i-BQg"
        }
      ],
      "services": {
        "appinvite_service": {
          "other_platform_oauth_client": [
            {
              "client_id": "560077801764-u1gkbnaeoh2ro1idhvnik123sn09ggrc.apps.googleusercontent.com",
              "client_type": 3
            }
          ]
        }
      }
    }
  ],
  "configuration_version": "1"
}